[
    {
        "id": "1",
        "name": "Shower\/Bath",
        "archive": "0",
        "created": "2018-09-10 14:52:24"
    },
    {
        "id": "2",
        "name": "Independent",
        "archive": "0",
        "created": "2018-09-10 14:52:47"
    },
    {
        "id": "3",
        "name": "Toileting",
        "archive": "0",
        "created": "2018-09-10 15:02:07"
    },
    {
        "id": "4",
        "name": "Assist",
        "archive": "0",
        "created": "2018-09-10 15:02:07"
    },
    {
        "id": "5",
        "name": "Grooming",
        "archive": "0",
        "created": "2018-09-10 15:02:07"
    },
    {
        "id": "6",
        "name": "Walking Stick",
        "archive": "0",
        "created": "2018-09-10 15:02:07"
    },
    {
        "id": "7",
        "name": "Dressing",
        "archive": "0",
        "created": "2018-09-10 15:02:07"
    },
    {
        "id": "8",
        "name": "Walking Frame",
        "archive": "0",
        "created": "2018-09-10 15:02:07"
    },
    {
        "id": "9",
        "name": "Manual Hoist",
        "archive": "0",
        "created": "2018-09-10 15:02:07"
    },
    {
        "id": "10",
        "name": "Other",
        "archive": "0",
        "created": "2018-09-10 15:02:07"
    }
]